astroid==2.3.3 \
    --hash=sha256:71ea07f44df9568a75d0f354c49143a4575d90645e9fead6dfb52c26a85ed13a \
    --hash=sha256:840947ebfa8b58f318d42301cf8c0a20fd794a33b61cc4638e28e9e61ba32f42
entrypoints==0.3 \
    --hash=sha256:589f874b313739ad35be6e0cd7efde2a4e9b6fea91edcc34e58ecbb8dbe56d19 \
    --hash=sha256:c70dd71abe5a8c85e55e12c19bd91ccfeec11a6e99044204511f9ed547d48451
flake8==3.7.9 \
    --hash=sha256:45681a117ecc81e870cbf1262835ae4af5e7a8b08e40b944a8a6e6b895914cfb \
    --hash=sha256:49356e766643ad15072a789a20915d3c91dc89fd313ccd71802303fd67e4deca
isort==4.3.21 \
    --hash=sha256:54da7e92468955c4fceacd0c86bd0ec997b0e1ee80d97f67c35a78b719dccab1 \
    --hash=sha256:6e811fcb295968434526407adb8796944f1988c5b65e8139058f2014cbe100fd
lazy-object-proxy==1.4.3 \
    --hash=sha256:0c4b206227a8097f05c4dbdd323c50edf81f15db3b8dc064d08c62d37e1a504d \
    --hash=sha256:194d092e6f246b906e8f70884e620e459fc54db3259e60cf69a4d66c3fda3449 \
    --hash=sha256:1be7e4c9f96948003609aa6c974ae59830a6baecc5376c25c92d7d697e684c08 \
    --hash=sha256:4677f594e474c91da97f489fea5b7daa17b5517190899cf213697e48d3902f5a \
    --hash=sha256:48dab84ebd4831077b150572aec802f303117c8cc5c871e182447281ebf3ac50 \
    --hash=sha256:5541cada25cd173702dbd99f8e22434105456314462326f06dba3e180f203dfd \
    --hash=sha256:59f79fef100b09564bc2df42ea2d8d21a64fdcda64979c0fa3db7bdaabaf6239 \
    --hash=sha256:8d859b89baf8ef7f8bc6b00aa20316483d67f0b1cbf422f5b4dc56701c8f2ffb \
    --hash=sha256:9254f4358b9b541e3441b007a0ea0764b9d056afdeafc1a5569eee1cc6c1b9ea \
    --hash=sha256:9651375199045a358eb6741df3e02a651e0330be090b3bc79f6d0de31a80ec3e \
    --hash=sha256:97bb5884f6f1cdce0099f86b907aa41c970c3c672ac8b9c8352789e103cf3156 \
    --hash=sha256:9b15f3f4c0f35727d3a0fba4b770b3c4ebbb1fa907dbcc046a1d2799f3edd142 \
    --hash=sha256:a2238e9d1bb71a56cd710611a1614d1194dc10a175c1e08d75e1a7bcc250d442 \
    --hash=sha256:a6ae12d08c0bf9909ce12385803a543bfe99b95fe01e752536a60af2b7797c62 \
    --hash=sha256:ca0a928a3ddbc5725be2dd1cf895ec0a254798915fb3a36af0964a0a4149e3db \
    --hash=sha256:cb2c7c57005a6804ab66f106ceb8482da55f5314b7fcb06551db1edae4ad1531 \
    --hash=sha256:d74bb8693bf9cf75ac3b47a54d716bbb1a92648d5f781fc799347cfc95952383 \
    --hash=sha256:d945239a5639b3ff35b70a88c5f2f491913eb94871780ebfabb2568bd58afc5a \
    --hash=sha256:eba7011090323c1dadf18b3b689845fd96a61ba0a1dfbd7f24b921398affc357 \
    --hash=sha256:efa1909120ce98bbb3777e8b6f92237f5d5c8ea6758efea36a473e1d38f7d3e4 \
    --hash=sha256:f3900e8a5de27447acbf900b4750b0ddfd7ec1ea7fbaf11dfa911141bc522af0
mccabe==0.6.1 \
    --hash=sha256:ab8a6258860da4b6677da4bd2fe5dc2c659cff31b3ee4f7f5d64e79735b80d42 \
    --hash=sha256:dd8d182285a0fe56bace7f45b5e7d1a6ebcbf524e8f3bd87eb0f125271b8831f
pycodestyle==2.5.0 \
    --hash=sha256:95a2219d12372f05704562a14ec30bc76b05a5b297b21a5dfe3f6fac3491ae56 \
    --hash=sha256:e40a936c9a450ad81df37f549d676d127b1b66000a6c500caa2b085bc0ca976c
pyflakes==2.1.1 \
    --hash=sha256:17dbeb2e3f4d772725c777fabc446d5634d1038f234e77343108ce445ea69ce0 \
    --hash=sha256:d976835886f8c5b31d47970ed689944a0262b5f3afa00a5a7b4dc81e5449f8a2
pylint==2.4.4 \
    --hash=sha256:3db5468ad013380e987410a8d6956226963aed94ecb5f9d3a28acca6d9ac36cd \
    --hash=sha256:886e6afc935ea2590b462664b161ca9a5e40168ea99e5300935f6591ad467df4
six==1.13.0 \
    --hash=sha256:1f1b7d42e254082a9db6279deae68afb421ceba6158efa6131de7b3003ee93fd \
    --hash=sha256:30f610279e8b2578cab6db20741130331735c781b56053c59c4076da27f06b66
typed-ast==1.4.0 \
    --hash=sha256:1170afa46a3799e18b4c977777ce137bb53c7485379d9706af8a59f2ea1aa161 \
    --hash=sha256:18511a0b3e7922276346bcb47e2ef9f38fb90fd31cb9223eed42c85d1312344e \
    --hash=sha256:262c247a82d005e43b5b7f69aff746370538e176131c32dda9cb0f324d27141e \
    --hash=sha256:2b907eb046d049bcd9892e3076c7a6456c93a25bebfe554e931620c90e6a25b0 \
    --hash=sha256:354c16e5babd09f5cb0ee000d54cfa38401d8b8891eefa878ac772f827181a3c \
    --hash=sha256:48e5b1e71f25cfdef98b013263a88d7145879fbb2d5185f2a0c79fa7ebbeae47 \
    --hash=sha256:4e0b70c6fc4d010f8107726af5fd37921b666f5b31d9331f0bd24ad9a088e631 \
    --hash=sha256:630968c5cdee51a11c05a30453f8cd65e0cc1d2ad0d9192819df9978984529f4 \
    --hash=sha256:66480f95b8167c9c5c5c87f32cf437d585937970f3fc24386f313a4c97b44e34 \
    --hash=sha256:71211d26ffd12d63a83e079ff258ac9d56a1376a25bc80b1cdcdf601b855b90b \
    --hash=sha256:7954560051331d003b4e2b3eb822d9dd2e376fa4f6d98fee32f452f52dd6ebb2 \
    --hash=sha256:838997f4310012cf2e1ad3803bce2f3402e9ffb71ded61b5ee22617b3a7f6b6e \
    --hash=sha256:95bd11af7eafc16e829af2d3df510cecfd4387f6453355188342c3e79a2ec87a \
    --hash=sha256:bc6c7d3fa1325a0c6613512a093bc2a2a15aeec350451cbdf9e1d4bffe3e3233 \
    --hash=sha256:cc34a6f5b426748a507dd5d1de4c1978f2eb5626d51326e43280941206c209e1 \
    --hash=sha256:d755f03c1e4a51e9b24d899561fec4ccaf51f210d52abdf8c07ee2849b212a36 \
    --hash=sha256:d7c45933b1bdfaf9f36c579671fec15d25b06c8398f113dab64c18ed1adda01d \
    --hash=sha256:d896919306dd0aa22d0132f62a1b78d11aaf4c9fc5b3410d3c666b818191630a \
    --hash=sha256:fdc1c9bbf79510b76408840e009ed65958feba92a88833cdceecff93ae8fff66 \
    --hash=sha256:ffde2fbfad571af120fcbfbbc61c72469e72f550d676c3342492a9dfdefb8f12
wrapt==1.11.2 \
    --hash=sha256:565a021fd19419476b9362b05eeaa094178de64f8361e44468f9e9d7843901e1
